﻿{
  "profiles": {
      "BlazorAuthentication.Api": {
      "commandName": "Project",
      "dotnetRunMessages": "true",
      "launchBrowser": false,
      "applicationUrl": "https://localhost:15001;http://localhost:15000",
      "environmentVariables": {
        "ASPNETCORE_ENVIRONMENT": "Development"
      }
    }
  }
}
